<?xml version="1.0" encoding="UTF-8" standalone="no"?>
<!DOCTYPE svg PUBLIC "-//W3C//DTD SVG 1.1//EN" "http://www.w3.org/Graphics/SVG/1.1/DTD/svg11.dtd">
<!-- Generated by Microsoft Visio, SVG Export java_jvm.svg Page-1 -->
<svg xmlns="http://www.w3.org/2000/svg" xmlns:xlink="http://www.w3.org/1999/xlink" xmlns:ev="http://www.w3.org/2001/xml-events"
		xmlns:v="http://schemas.microsoft.com/visio/2003/SVGExtensions/" width="5.95168in" height="1.4644in"
		viewBox="0 0 428.521 105.437" xml:space="preserve" color-interpolation-filters="sRGB" class="st24">
	<v:documentProperties v:langID="1033" v:metric="true" v:viewMarkup="false"/>

	<style type="text/css">
	<![CDATA[
		.st1 {fill:#feffff;stroke:#6d8329;stroke-linecap:butt;stroke-width:0.75}
		.st2 {fill:#54651d;font-family:Calibri;font-size:0.833336em;font-weight:bold}
		.st3 {font-size:1em;font-style:italic;font-weight:normal}
		.st4 {fill:#feffff;stroke:#355da4;stroke-linecap:butt;stroke-width:0.75}
		.st5 {fill:#274780;font-family:Calibri;font-size:0.833336em;font-weight:bold}
		.st6 {fill:#feffff;stroke:#356b83;stroke-linecap:butt;stroke-width:0.75}
		.st7 {fill:url(#grad7-21)}
		.st8 {stroke:#356b83;stroke-linecap:butt;stroke-width:0.75}
		.st9 {fill:url(#grad0-26);stroke:#356b83;stroke-linecap:butt;stroke-width:0.75}
		.st10 {fill:url(#grad0-30);stroke:#356b83;stroke-linecap:butt;stroke-width:0.75}
		.st11 {fill:url(#grad8-36);stroke:#356b83;stroke-linecap:butt;stroke-width:0.75}
		.st12 {fill:url(#grad0-42);stroke:#356b83;stroke-linecap:butt;stroke-width:0.75}
		.st13 {fill:url(#grad12-46);stroke:#356b83;stroke-linecap:butt;stroke-width:0.75}
		.st14 {fill:url(#grad12-62);stroke:#356b83;stroke-linecap:butt;stroke-width:0.75}
		.st15 {fill:#feffff;stroke:#356b83;stroke-linecap:butt;stroke-width:0.75;visibility:hidden}
		.st16 {fill:#275265;font-family:Calibri;font-size:0.833336em;font-weight:bold}
		.st17 {font-size:1em}
		.st18 {fill:#dee6f3;stroke:#ffffff;stroke-linecap:round;stroke-linejoin:round;stroke-width:0.5}
		.st19 {fill:#5899d4;font-family:Calibri;font-size:0.833336em;font-weight:bold}
		.st20 {fill:#e0eadc;stroke:#ffffff;stroke-linecap:round;stroke-linejoin:round;stroke-width:0.5}
		.st21 {fill:#71ac41;font-family:Calibri;font-size:0.833336em;font-weight:bold}
		.st22 {marker-end:url(#mrkr4-121);stroke:#5692c9;stroke-linecap:round;stroke-linejoin:round;stroke-width:0.5}
		.st23 {fill:#5692c9;fill-opacity:1;stroke:#5692c9;stroke-opacity:1;stroke-width:0.16556291390728}
		.st24 {fill:none;fill-rule:evenodd;font-size:12px;overflow:visible;stroke-linecap:square;stroke-miterlimit:3}
	]]>
	</style>

	<defs id="Patterns_And_Gradients">
		<radialGradient id="grad7-21" cx="0" cy="0" r="1.4">
			<stop offset="0" stop-color="#666666" stop-opacity="1"/>
			<stop offset="1" stop-color="#c0c0c0" stop-opacity="1"/>
		</radialGradient>
		<linearGradient id="grad0-26" x1="0" y1="0" x2="1" y2="0" gradientTransform="rotate(0 0.5 0.5)">
			<stop offset="0" stop-color="#c0c0c0" stop-opacity="1"/>
			<stop offset="1" stop-color="#e6e6e6" stop-opacity="1"/>
		</linearGradient>
		<linearGradient id="grad0-30" x1="0" y1="0" x2="1" y2="0" gradientTransform="rotate(90 0.5 0.5)">
			<stop offset="0.01" stop-color="#9a9a9a" stop-opacity="1"/>
			<stop offset="0.5" stop-color="#e6e6e6" stop-opacity="1"/>
			<stop offset="1" stop-color="#9a9a9a" stop-opacity="1"/>
		</linearGradient>
		<pattern id="grad8-36" x="0" y="0" width="1" height="1" patternContentUnits="objectBoundingBox">
			<path d="M 0 0 L 1 0 L 1 1 z" style="fill:url(#grad0-37)"/>
			<path d="M 0 0 L 0 1 L 1 1 z" style="fill:url(#grad0-38)"/>
		</pattern>
		<linearGradient id="grad0-37" x1="0" y1="0" x2="1" y2="0" gradientTransform="rotate(270 0.5 0.5)">
			<stop offset="0" stop-color="#e6e6e6" stop-opacity="1"/>
			<stop offset="1" stop-color="#9a9a9a" stop-opacity="1"/>
		</linearGradient>
		<linearGradient id="grad0-38" x1="0" y1="0" x2="1" y2="0" gradientTransform="rotate(180 0.5 0.5)">
			<stop offset="0" stop-color="#e6e6e6" stop-opacity="1"/>
			<stop offset="1" stop-color="#9a9a9a" stop-opacity="1"/>
		</linearGradient>
		<linearGradient id="grad0-42" x1="0" y1="0" x2="1" y2="0" gradientTransform="rotate(180 0.5 0.5)">
			<stop offset="0.01" stop-color="#dbdac6" stop-opacity="1"/>
			<stop offset="0.5" stop-color="#9a9a9a" stop-opacity="1"/>
			<stop offset="1" stop-color="#dbdac6" stop-opacity="1"/>
		</linearGradient>
		<pattern id="grad12-46" x="0" y="0" width="1" height="1" patternContentUnits="objectBoundingBox">
			<path d="M 0 0 L 0 1 L 1 1 z" style="fill:url(#grad0-47)"/>
			<path d="M 0 0 L 1 0 L 1 1 z" style="fill:url(#grad0-48)"/>
		</pattern>
		<linearGradient id="grad0-47" x1="0" y1="0" x2="1" y2="0" gradientTransform="rotate(90 0.5 0.5)">
			<stop offset="0" stop-color="#e6e6e6" stop-opacity="1"/>
			<stop offset="1" stop-color="#9a9a9a" stop-opacity="1"/>
		</linearGradient>
		<linearGradient id="grad0-48" x1="0" y1="0" x2="1" y2="0" gradientTransform="rotate(360 0.5 0.5)">
			<stop offset="0" stop-color="#e6e6e6" stop-opacity="1"/>
			<stop offset="1" stop-color="#9a9a9a" stop-opacity="1"/>
		</linearGradient>
		<pattern id="grad12-62" x="0" y="0" width="1" height="1" patternContentUnits="objectBoundingBox">
			<path d="M 0 0 L 0 1 L 1 1 z" style="fill:url(#grad0-63)"/>
			<path d="M 0 0 L 1 0 L 1 1 z" style="fill:url(#grad0-64)"/>
		</pattern>
		<linearGradient id="grad0-63" x1="0" y1="0" x2="1" y2="0" gradientTransform="rotate(90 0.5 0.5)">
			<stop offset="0" stop-color="#ffffff" stop-opacity="1"/>
			<stop offset="1" stop-color="#8a8aff" stop-opacity="1"/>
		</linearGradient>
		<linearGradient id="grad0-64" x1="0" y1="0" x2="1" y2="0" gradientTransform="rotate(360 0.5 0.5)">
			<stop offset="0" stop-color="#ffffff" stop-opacity="1"/>
			<stop offset="1" stop-color="#8a8aff" stop-opacity="1"/>
		</linearGradient>
	</defs>
	<defs id="Markers">
		<g id="lend4">
			<path d="M 2 1 L 0 0 L 2 -1 L 2 1 " style="stroke:none"/>
		</g>
		<marker id="mrkr4-121" class="st23" v:arrowType="4" v:arrowSize="2" v:setback="12.08" refX="-12.08" orient="auto"
				markerUnits="strokeWidth" overflow="visible">
			<use xlink:href="#lend4" transform="scale(-6.04,-6.04) "/>
		</marker>
	</defs>
	<g v:mID="0" v:index="1" v:groupContext="foregroundPage">
		<title>Page-1</title>
		<v:pageProperties v:drawingScale="0.0393701" v:pageScale="0.0393701" v:drawingUnits="24" v:shadowOffsetX="8.50394"
				v:shadowOffsetY="-8.50394"/>
		<v:layer v:name="Network" v:index="0"/>
		<v:layer v:name="Connector" v:index="1"/>
		<g id="shape84-1" v:mID="84" v:groupContext="shape" transform="translate(0.75,-0.75)">
			<title>Document</title>
			<desc>HelloWorld.java Kod źródłowy</desc>
			<v:userDefs>
				<v:ud v:nameU="visDescription" v:val="VT4(Use to add a document or file to your system diagram.)"/>
				<v:ud v:nameU="visVersion" v:val="VT0(15):26"/>
			</v:userDefs>
			<v:textBlock v:margins="rect(4,4,4,4)" v:tabSpace="42.5197"/>
			<v:textRect cx="38.9764" cy="66.4606" width="77.96" height="77.9528"/>
			<path d="M51.97 1.5 L77.95 27.48 L51.97 27.48 L51.97 1.5 ZM0 1.5 L0 105.44 L77.95 105.44 L77.95 27.48 L51.97 27.48 L51.97
						 1.5 L0 1.5 Z" class="st1"/>
			<text x="5.34" y="57.46" class="st2" v:langID="1045"><v:paragraph v:horizAlign="1"/><v:tabList/>HelloWorld.java<v:newlineChar/><v:newlineChar/><tspan
						x="11.67" dy="2.4em" class="st3">Kod źródłowy</tspan></text>		</g>
		<g id="shape85-5" v:mID="85" v:groupContext="shape" transform="translate(180.75,-0.75)">
			<title>Document.85</title>
			<desc>HelloWorld.class Byte code</desc>
			<v:userDefs>
				<v:ud v:nameU="visDescription" v:val="VT4(Use to add a document or file to your system diagram.)"/>
				<v:ud v:nameU="visVersion" v:val="VT0(15):26"/>
			</v:userDefs>
			<v:textBlock v:margins="rect(4,4,4,4)" v:tabSpace="42.5197"/>
			<v:textRect cx="38.9764" cy="66.4606" width="77.96" height="77.9528"/>
			<path d="M51.97 1.5 L77.95 27.48 L51.97 27.48 L51.97 1.5 ZM0 1.5 L0 105.44 L77.95 105.44 L77.95 27.48 L51.97 27.48 L51.97
						 1.5 L0 1.5 Z" class="st4"/>
			<text x="4.14" y="57.46" class="st5" v:langID="1045"><v:paragraph v:horizAlign="1"/><v:tabList/>HelloWorld.class<v:newlineChar/><v:newlineChar/><tspan
						x="19.22" dy="2.4em" class="st3">Byte code</tspan></text>		</g>
		<g id="group61-9" transform="translate(372.514,-36.2067)" v:mID="61" v:groupContext="group" v:layerMember="0">
			<v:custProps>
				<v:cp v:nameU="Manufacturer" v:lbl="Manufacturer" v:type="0" v:sortKey="1" v:invis="false" v:ask="false"
						v:langID="1033" v:val="VT4()"/>
				<v:cp v:nameU="ProductNumber" v:lbl="Product Number" v:type="0" v:sortKey="1" v:invis="false" v:ask="false"
						v:langID="1033" v:val="VT4()"/>
				<v:cp v:nameU="PartNumber" v:lbl="Part Number" v:type="0" v:sortKey="1" v:invis="false" v:ask="false"
						v:langID="1033" v:val="VT4()"/>
				<v:cp v:nameU="ProductDescription" v:lbl="Product Description" v:type="0" v:sortKey="1" v:invis="false"
						v:ask="false" v:langID="1033" v:val="VT4()"/>
				<v:cp v:nameU="AssetNumber" v:lbl="Asset Number" v:type="0" v:sortKey="1" v:invis="false" v:ask="false"
						v:langID="1033" v:val="VT4()"/>
				<v:cp v:nameU="SerialNumber" v:lbl="Serial Number" v:type="0" v:sortKey="1" v:invis="false" v:ask="false"
						v:langID="1033" v:val="VT4()"/>
				<v:cp v:nameU="Location" v:lbl="Location" v:type="0" v:sortKey="1" v:invis="false" v:ask="false" v:langID="1033"
						v:val="VT4()"/>
				<v:cp v:nameU="Building" v:lbl="Building" v:type="0" v:sortKey="1" v:invis="false" v:ask="false" v:langID="1033"
						v:val="VT4()"/>
				<v:cp v:nameU="Room" v:lbl="Room" v:type="0" v:sortKey="1" v:invis="false" v:ask="false" v:langID="1033"
						v:val="VT4()"/>
				<v:cp v:nameU="Department" v:lbl="Department" v:type="0" v:sortKey="1" v:invis="false" v:ask="false"
						v:langID="1033" v:val="VT4()"/>
			</v:custProps>
			<v:userDefs>
				<v:ud v:nameU="visVersion" v:val="VT0(15):26"/>
			</v:userDefs>
			<title>Workstation.61</title>
			<g id="shape62-10" v:mID="62" v:groupContext="shape" v:layerMember="0" transform="translate(36,-1.42109E-13)">
				<title>Sheet.62</title>
				<path d="M0 105.44 L4.5 100.94 L4.5 94.19 L0 98.69 L0 105.44 Z" class="st6"/>
			</g>
			<g id="shape63-12" v:mID="63" v:groupContext="shape" v:layerMember="0" transform="translate(33.75,-7.875)">
				<title>Sheet.63</title>
				<path d="M3.37 105.44 L6.75 102.06 L0 102.06 L3.37 105.44 Z" class="st6"/>
			</g>
			<g id="shape64-14" v:mID="64" v:groupContext="shape" v:layerMember="0" transform="translate(6.39488E-14,-6.75)">
				<title>Sheet.64</title>
				<path d="M9 105.44 L2.25 103.19 L0 105.44 L9 105.44 Z" class="st6"/>
			</g>
			<g id="shape65-16" v:mID="65" v:groupContext="shape" v:layerMember="0" transform="translate(2.25,-6.75)">
				<title>Sheet.65</title>
				<path d="M37.12 102.06 L34.87 100.94 L2.25 100.94 L0 103.19 L6.75 105.44 L33.75 105.44 L37.12 102.06 Z" class="st6"/>
			</g>
			<g id="shape66-18" v:mID="66" v:groupContext="shape" v:layerMember="0" transform="translate(7.59375,-7.00854)">
				<title>Sheet.66</title>
				<path d="M0 103.71 A12.6563 1.71017 -179.94 0 0 25.31 103.74 L0 103.7 L0 103.71 Z" class="st7"/>
				<path d="M0 103.71 A12.6563 1.71017 -179.94 0 0 25.31 103.74 L0 103.7" class="st8"/>
			</g>
			<g id="shape67-23" v:mID="67" v:groupContext="shape" v:layerMember="0">
				<title>Sheet.67</title>
				<rect x="0" y="98.687" width="36" height="6.75" class="st9"/>
			</g>
			<g id="shape68-27" v:mID="68" v:groupContext="shape" v:layerMember="0" transform="translate(0.321429,-4.17857)">
				<title>Sheet.68</title>
				<rect x="0" y="104.473" width="35.3571" height="0.964286" class="st10"/>
			</g>
			<g id="shape69-31" v:mID="69" v:groupContext="shape" v:layerMember="0" transform="translate(3.31071,-4.17857)">
				<title>Sheet.69</title>
				<rect x="0" y="104.473" width="6.23571" height="0.964286" class="st6"/>
			</g>
			<g id="shape70-33" v:mID="70" v:groupContext="shape" v:layerMember="0"
					transform="translate(-71.8833,29.9478) rotate(-45)">
				<title>Sheet.70</title>
				<rect x="0" y="103.775" width="1.66229" height="1.66229" class="st11"/>
			</g>
			<g id="shape71-39" v:mID="71" v:groupContext="shape" v:layerMember="0" transform="translate(5.48437,-1.00446)">
				<title>Sheet.71</title>
				<rect x="0" y="104.473" width="3.51563" height="0.964286" class="st12"/>
			</g>
			<g id="shape72-43" v:mID="72" v:groupContext="shape" v:layerMember="0"
					transform="translate(-71.8833,29.5484) rotate(-45)">
				<title>Sheet.72</title>
				<rect x="0" y="104.34" width="1.09743" height="1.09743" class="st13"/>
			</g>
			<g id="shape73-49" v:mID="73" v:groupContext="shape" v:layerMember="0"
					transform="translate(-71.8833,28.9331) rotate(-45)">
				<title>Sheet.73</title>
				<rect x="0" y="105.21" width="0.227284" height="0.227284" class="st6"/>
			</g>
			<g id="shape74-51" v:mID="74" v:groupContext="shape" v:layerMember="0" transform="translate(34.9432,-8.51136)">
				<title>Sheet.74</title>
				<path d="M0 105.44 L4.23 101.21 L4.23 93.46 L5.64 89.23 L5.64 72.32 L0 77.96 L0 105.44 Z" class="st6"/>
			</g>
			<g id="shape75-53" v:mID="75" v:groupContext="shape" v:layerMember="0" transform="translate(1.125,-35.9886)">
				<title>Sheet.75</title>
				<path d="M39.45 99.8 L5.64 99.8 L0 105.44 L33.82 105.44 L39.45 99.8 Z" class="st6"/>
			</g>
			<g id="shape76-55" v:mID="76" v:groupContext="shape" v:layerMember="0" transform="translate(1.125,-8.57072)">
				<title>Sheet.76</title>
				<path d="M0 78.02 L0 105.44 L33.82 105.44 L33.82 78.02 L0 78.02 Z" class="st6"/>
			</g>
			<g id="shape77-57" v:mID="77" v:groupContext="shape" v:layerMember="0" transform="translate(31.5614,-11.1412)">
				<title>Sheet.77</title>
				<rect x="0" y="104.58" width="1.69091" height="0.85681" class="st6"/>
			</g>
			<g id="shape78-59" v:mID="78" v:groupContext="shape" v:layerMember="0" transform="translate(5.50269,-14.8683)">
				<title>Sheet.78</title>
				<rect x="0" y="88.1695" width="24.5087" height="17.2675" class="st14"/>
			</g>
			<g id="shape79-65" v:mID="79" v:groupContext="shape" v:layerMember="0" transform="translate(4.17857,-0.803571)">
				<title>Sheet.79</title>
				<path d="M21.21 102.54 L20.57 103.03 L21.21 103.51" class="st8"/>
				<path d="M23.79 102.54 L23.14 103.03 L23.79 103.51" class="st8"/>
				<path d="M26.36 102.54 L25.71 103.03 L26.36 103.51" class="st8"/>
				<path d="M28.93 102.54 L28.29 103.03 L28.93 103.51" class="st8"/>
				<path d="M18.64 102.54 L18 103.03 L18.64 103.51" class="st8"/>
				<path d="M13.5 102.54 L12.86 103.03 L13.5 103.51" class="st8"/>
				<path d="M16.07 102.54 L15.43 103.03 L16.07 103.51" class="st8"/>
				<path d="M5.79 102.54 L5.14 103.03 L5.79 103.51" class="st8"/>
				<path d="M8.36 102.54 L7.71 103.03 L8.36 103.51" class="st8"/>
				<path d="M10.93 102.54 L10.29 103.03 L10.93 103.51" class="st8"/>
				<path d="M7.71 104.47 L7.07 104.95 L7.71 105.44" class="st8"/>
				<path d="M27.64 104.47 L27 104.95 L27.64 105.44" class="st8"/>
				<path d="M30.21 104.47 L29.57 104.95 L30.21 105.44" class="st8"/>
				<path d="M22.82 104.47 L22.18 104.95 L22.82 105.44" class="st8"/>
				<path d="M25.39 104.47 L24.75 104.95 L25.39 105.44" class="st8"/>
				<path d="M12.54 104.47 L11.89 104.95 L12.54 105.44" class="st8"/>
				<path d="M15.11 104.47 L14.46 104.95 L15.11 105.44" class="st8"/>
				<path d="M17.68 104.47 L17.04 104.95 L17.68 105.44" class="st8"/>
				<path d="M20.25 104.47 L19.61 104.95 L20.25 105.44" class="st8"/>
				<path d="M9.96 104.47 L9.32 104.95 L9.96 105.44" class="st8"/>
				<path d="M3.21 102.54 L2.57 103.03 L3.21 103.51" class="st8"/>
				<path d="M0.64 102.54 L0 103.03 L0.64 103.51" class="st8"/>
			</g>
			<g id="shape80-89" v:mID="80" v:groupContext="shape" v:layerMember="0" transform="translate(4.29545,-12.8725)">
				<title>Sheet.80</title>
				<path d="M2.11 103.29 L2.11 87.15 L25.36 87.15 L25.36 103.29 L2.11 103.29 ZM1.06 104.36 L26.42 104.36 L26.42 86.08
							 L27.48 86.08 L27.48 85 L0 85 L0 85.89 L0 105.44 L1.06 105.44 L1.06 104.36 Z" class="st11"/>
			</g>
			<g id="shape81-92" v:mID="81" v:groupContext="shape" v:layerMember="0" transform="translate(1.125,-8.57072)">
				<title>Sheet.81</title>
				<path d="M9.3 103.72 L9.3 105.44" class="st8"/>
				<path d="M5.07 103.72 L5.07 105.44" class="st8"/>
				<path d="M0 103.72 L33.82 103.72" class="st8"/>
			</g>
			<g id="shape82-97" v:mID="82" v:groupContext="shape" v:layerMember="0">
				<title>Sheet.82</title>
				<path d="M0 105.44 L0 98.69 L1.69 97 L1.12 97 L1.12 69.44 L6.75 63.81 L40.5 63.81 L40.5 80.97 L39.09 84.91 L39.09
							 92.5 L37.69 94.19 L40.5 94.19 L40.5 100.94 L36 105.44 L0 105.44" class="st8"/>
			</g>
			<g id="shape83-100" v:mID="83" v:groupContext="shape" v:layerMember="0" transform="translate(-20.0074,28.0037)">
				<title>Sheet.83</title>
				<desc>Kod maszynowy, uruchomienie</desc>
				<v:userDefs>
					<v:ud v:nameU="FillPattern" v:val="VT0(1):26"/>
					<v:ud v:nameU="FillForegnd" v:val="VT0(1):26"/>
					<v:ud v:nameU="FillBkgnd" v:val="VT0(0):26"/>
				</v:userDefs>
				<v:textBlock v:margins="rect(2,2,2,2)" v:tabSpace="42.5197"/>
				<v:textRect cx="38.0074" cy="91.4352" width="76.02" height="28.0037"/>
				<rect x="0" y="77.4333" width="76.0149" height="28.0037" class="st15"/>
				<text x="3.13" y="88.44" class="st16" v:langID="1045"><v:paragraph v:horizAlign="1"/><v:tabList/>Kod maszynowy,<v:lf/><tspan
							x="9.16" dy="1.2em" class="st17">uruchomienie</tspan></text>			</g>
		</g>
		<g id="group34-104" transform="translate(99.9626,-33.2303)" v:mID="34" v:groupContext="group">
			<v:userDefs>
				<v:ud v:nameU="visVersion" v:prompt="" v:val="VT0(15):26"/>
			</v:userDefs>
			<title>Can.34</title>
			<desc>Kompilator</desc>
			<g id="shape35-105" v:mID="35" v:groupContext="shape">
				<title>Sheet.35</title>
				<v:userDefs>
					<v:ud v:nameU="ControlHalfHeight" v:prompt="" v:val="VT0(0.11811023622047):24"/>
					<v:ud v:nameU="FillForegnd" v:prompt="" v:val="VT0(1):26"/>
					<v:ud v:nameU="ControlHalfHeight" v:prompt="" v:val="VT0(0.054133858267717):24"/>
					<v:ud v:nameU="FillForegnd" v:prompt="" v:val="VT5(#dee7f3)"/>
				</v:userDefs>
				<path d="M0 101.54 A29.7638 3.89764 -180 1 0 59.53 101.54 L59.53 70.36 L0 70.36 L0 101.54 Z" class="st18"/>
			</g>
			<g id="shape34-107" v:mID="34" v:groupContext="groupContent">
				<v:textBlock v:margins="rect(4,4,4,4)" v:tabSpace="42.5197"/>
				<v:textRect cx="29.7638" cy="85.9488" width="59.53" height="38.9764"/>
				<ellipse cx="29.7638" cy="70.3583" rx="29.7638" ry="3.89764" class="st18"/>
				<text x="6.47" y="88.95" class="st19" v:langID="1045"><v:paragraph v:horizAlign="1"/><v:tabList/>Kompilator</text>			</g>
		</g>
		<g id="group36-110" transform="translate(279.963,-33.2303)" v:mID="36" v:groupContext="group">
			<v:userDefs>
				<v:ud v:nameU="visVersion" v:prompt="" v:val="VT0(15):26"/>
			</v:userDefs>
			<title>Can</title>
			<desc>JVM</desc>
			<g id="shape37-111" v:mID="37" v:groupContext="shape">
				<title>Sheet.37</title>
				<v:userDefs>
					<v:ud v:nameU="ControlHalfHeight" v:prompt="" v:val="VT0(0.11811023622047):24"/>
					<v:ud v:nameU="FillForegnd" v:prompt="" v:val="VT0(1):26"/>
					<v:ud v:nameU="ControlHalfHeight" v:prompt="" v:val="VT0(0.054133858267717):24"/>
					<v:ud v:nameU="FillForegnd" v:prompt="" v:val="VT5(#e1ebdc)"/>
				</v:userDefs>
				<path d="M0 101.54 A29.7638 3.89764 -180 1 0 59.53 101.54 L59.53 70.36 L0 70.36 L0 101.54 Z" class="st20"/>
			</g>
			<g id="shape36-113" v:mID="36" v:groupContext="groupContent">
				<v:textBlock v:margins="rect(4,4,4,4)" v:tabSpace="42.5197"/>
				<v:textRect cx="29.7638" cy="85.9488" width="59.53" height="38.9764"/>
				<ellipse cx="29.7638" cy="70.3583" rx="29.7638" ry="3.89764" class="st20"/>
				<text x="20.78" y="88.95" class="st21" v:langID="1045"><v:paragraph v:horizAlign="1"/><v:tabList/>JVM</text>			</g>
		</g>
		<g id="shape26-116" v:mID="26" v:groupContext="shape" v:layerMember="1" transform="translate(78.7028,-45.6319)">
			<title>Dynamic connector</title>
			<path d="M0 98.35 L15.22 98.35" class="st22"/>
		</g>
		<g id="shape27-122" v:mID="27" v:groupContext="shape" v:layerMember="1" transform="translate(159.49,-45.6319)">
			<title>Dynamic connector.27</title>
			<path d="M0 98.35 L15.22 98.35" class="st22"/>
		</g>
		<g id="shape28-127" v:mID="28" v:groupContext="shape" v:layerMember="1" transform="translate(258.703,-45.6319)">
			<title>Dynamic connector.28</title>
			<path d="M0 98.35 L15.22 98.35" class="st22"/>
		</g>
		<g id="shape29-132" v:mID="29" v:groupContext="shape" v:layerMember="1" transform="translate(339.49,-45.6319)">
			<title>Dynamic connector.29</title>
			<path d="M0 98.35 L28.11 98.35" class="st22"/>
		</g>
	</g>
</svg>
